Digital Systems/Quartus/mini/simulation/qsim/mini.msim.vcd
$comment
	File created using the following command:
		vcd file mini.msim.vcd -direction
$end
$date
	Mon Aug 27 12:37:34 2018
$end
$version
	ModelSim Version 10.5b
$end
$timescale
	1ps
$end

$scope module testconut_vlg_vec_tst $end
$var reg 1 ! CLK $end
$var wire 1 " Q $end

$scope module i1 $end
$var wire 1 # gnd $end
$var wire 1 $ vcc $end
$var wire 1 % unknown $end
$var tri1 1 & devclrn $end
$var tri1 1 ' devpor $end
$var tri1 1 ( devoe $end
$var wire 1 ) Q~output_o $end
$var wire 1 * CLK~input_o $end
$var wire 1 + inst|Add0~0_combout $end
$var wire 1 , inst|Add0~1 $end
$var wire 1 - inst|Add0~2_combout $end
$var wire 1 . inst|i~0_combout $end
$var wire 1 / inst|Add0~3 $end
$var wire 1 0 inst|Add0~4_combout $end
$var wire 1 1 inst|Add0~5 $end
$var wire 1 2 inst|Add0~6_combout $end
$var wire 1 3 inst|Add0~7 $end
$var wire 1 4 inst|Add0~8_combout $end
$var wire 1 5 inst|Add0~9 $end
$var wire 1 6 inst|Add0~10_combout $end
$var wire 1 7 inst|Add0~11 $end
$var wire 1 8 inst|Add0~12_combout $end
$var wire 1 9 inst|Add0~13 $end
$var wire 1 : inst|Add0~14_combout $end
$var wire 1 ; inst|Add0~15 $end
$var wire 1 < inst|Add0~16_combout $end
$var wire 1 = inst|Add0~17 $end
$var wire 1 > inst|Add0~18_combout $end
$var wire 1 ? inst|Add0~19 $end
$var wire 1 @ inst|Add0~20_combout $end
$var wire 1 A inst|Add0~21 $end
$var wire 1 B inst|Add0~22_combout $end
$var wire 1 C inst|Add0~23 $end
$var wire 1 D inst|Add0~24_combout $end
$var wire 1 E inst|Add0~25 $end
$var wire 1 F inst|Add0~26_combout $end
$var wire 1 G inst|Add0~27 $end
$var wire 1 H inst|Add0~28_combout $end
$var wire 1 I inst|Add0~29 $end
$var wire 1 J inst|Add0~30_combout $end
$var wire 1 K inst|Add0~31 $end
$var wire 1 L inst|Add0~32_combout $end
$var wire 1 M inst|Add0~33 $end
$var wire 1 N inst|Add0~34_combout $end
$var wire 1 O inst|Add0~35 $end
$var wire 1 P inst|Add0~36_combout $end
$var wire 1 Q inst|Add0~37 $end
$var wire 1 R inst|Add0~38_combout $end
$var wire 1 S inst|Add0~39 $end
$var wire 1 T inst|Add0~40_combout $end
$var wire 1 U inst|Add0~41 $end
$var wire 1 V inst|Add0~42_combout $end
$var wire 1 W inst|Add0~43 $end
$var wire 1 X inst|Add0~44_combout $end
$var wire 1 Y inst|Add0~45 $end
$var wire 1 Z inst|Add0~46_combout $end
$var wire 1 [ inst|Add0~47 $end
$var wire 1 \ inst|Add0~48_combout $end
$var wire 1 ] inst|Add0~49 $end
$var wire 1 ^ inst|Add0~50_combout $end
$var wire 1 _ inst|Add0~51 $end
$var wire 1 ` inst|Add0~52_combout $end
$var wire 1 a inst|Add0~53 $end
$var wire 1 b inst|Add0~54_combout $end
$var wire 1 c inst|Add0~55 $end
$var wire 1 d inst|Add0~56_combout $end
$var wire 1 e inst|Add0~57 $end
$var wire 1 f inst|Add0~58_combout $end
$var wire 1 g inst|Add0~59 $end
$var wire 1 h inst|Add0~60_combout $end
$var wire 1 i inst|Add0~61 $end
$var wire 1 j inst|Add0~62_combout $end
$var wire 1 k inst|Equal0~0_combout $end
$var wire 1 l inst|Equal0~1_combout $end
$var wire 1 m inst|Equal0~2_combout $end
$var wire 1 n inst|Equal0~3_combout $end
$var wire 1 o inst|Equal0~4_combout $end
$var wire 1 p inst|Equal0~5_combout $end
$var wire 1 q inst|Equal0~6_combout $end
$var wire 1 r inst|Equal0~7_combout $end
$var wire 1 s inst|Equal0~8_combout $end
$var wire 1 t inst|Equal0~9_combout $end
$var wire 1 u inst|Equal0~10_combout $end
$var wire 1 v inst|j~0_combout $end
$var wire 1 w inst|Add1~0_combout $end
$var wire 1 x inst|j~1_combout $end
$var wire 1 y inst|Add1~1 $end
$var wire 1 z inst|Add1~2_combout $end
$var wire 1 { inst|Add1~3 $end
$var wire 1 | inst|Add1~4_combout $end
$var wire 1 } inst|Add1~5 $end
$var wire 1 ~ inst|Add1~6_combout $end
$var wire 1 !! inst|Equal1~0_combout $end
$var wire 1 "! inst|Add1~7 $end
$var wire 1 #! inst|Add1~8_combout $end
$var wire 1 $! inst|Add1~9 $end
$var wire 1 %! inst|Add1~10_combout $end
$var wire 1 &! inst|Add1~11 $end
$var wire 1 '! inst|Add1~12_combout $end
$var wire 1 (! inst|Add1~13 $end
$var wire 1 )! inst|Add1~14_combout $end
$var wire 1 *! inst|Equal1~1_combout $end
$var wire 1 +! inst|Add1~15 $end
$var wire 1 ,! inst|Add1~16_combout $end
$var wire 1 -! inst|Add1~17 $end
$var wire 1 .! inst|Add1~18_combout $end
$var wire 1 /! inst|Add1~19 $end
$var wire 1 0! inst|Add1~20_combout $end
$var wire 1 1! inst|Add1~21 $end
$var wire 1 2! inst|Add1~22_combout $end
$var wire 1 3! inst|Equal1~2_combout $end
$var wire 1 4! inst|Add1~23 $end
$var wire 1 5! inst|Add1~24_combout $end
$var wire 1 6! inst|Add1~25 $end
$var wire 1 7! inst|Add1~26_combout $end
$var wire 1 8! inst|Add1~27 $end
$var wire 1 9! inst|Add1~28_combout $end
$var wire 1 :! inst|Add1~29 $end
$var wire 1 ;! inst|Add1~30_combout $end
$var wire 1 <! inst|Equal1~3_combout $end
$var wire 1 =! inst|Equal1~4_combout $end
$var wire 1 >! inst|Add1~31 $end
$var wire 1 ?! inst|Add1~32_combout $end
$var wire 1 @! inst|Add1~33 $end
$var wire 1 A! inst|Add1~34_combout $end
$var wire 1 B! inst|Add1~35 $end
$var wire 1 C! inst|Add1~36_combout $end
$var wire 1 D! inst|Add1~37 $end
$var wire 1 E! inst|Add1~38_combout $end
$var wire 1 F! inst|Equal1~5_combout $end
$var wire 1 G! inst|Add1~39 $end
$var wire 1 H! inst|Add1~40_combout $end
$var wire 1 I! inst|Add1~41 $end
$var wire 1 J! inst|Add1~42_combout $end
$var wire 1 K! inst|Equal1~6_combout $end
$var wire 1 L! inst|Add1~43 $end
$var wire 1 M! inst|Add1~44_combout $end
$var wire 1 N! inst|Add1~45 $end
$var wire 1 O! inst|Add1~46_combout $end
$var wire 1 P! inst|Equal1~7_combout $end
$var wire 1 Q! inst|Add1~47 $end
$var wire 1 R! inst|Add1~48_combout $end
$var wire 1 S! inst|Add1~49 $end
$var wire 1 T! inst|Add1~50_combout $end
$var wire 1 U! inst|Add1~51 $end
$var wire 1 V! inst|Add1~52_combout $end
$var wire 1 W! inst|Add1~53 $end
$var wire 1 X! inst|Add1~54_combout $end
$var wire 1 Y! inst|Equal1~8_combout $end
$var wire 1 Z! inst|Add1~55 $end
$var wire 1 [! inst|Add1~56_combout $end
$var wire 1 \! inst|Add1~57 $end
$var wire 1 ]! inst|Add1~58_combout $end
$var wire 1 ^! inst|Add1~59 $end
$var wire 1 _! inst|Add1~60_combout $end
$var wire 1 `! inst|Add1~61 $end
$var wire 1 a! inst|Add1~62_combout $end
$var wire 1 b! inst|Equal1~9_combout $end
$var wire 1 c! inst|Equal1~10_combout $end
$var wire 1 d! inst|Q~0_combout $end
$var wire 1 e! inst|Q~q $end
$var wire 1 f! inst|i [31] $end
$var wire 1 g! inst|i [30] $end
$var wire 1 h! inst|i [29] $end
$var wire 1 i! inst|i [28] $end
$var wire 1 j! inst|i [27] $end
$var wire 1 k! inst|i [26] $end
$var wire 1 l! inst|i [25] $end
$var wire 1 m! inst|i [24] $end
$var wire 1 n! inst|i [23] $end
$var wire 1 o! inst|i [22] $end
$var wire 1 p! inst|i [21] $end
$var wire 1 q! inst|i [20] $end
$var wire 1 r! inst|i [19] $end
$var wire 1 s! inst|i [18] $end
$var wire 1 t! inst|i [17] $end
$var wire 1 u! inst|i [16] $end
$var wire 1 v! inst|i [15] $end
$var wire 1 w! inst|i [14] $end
$var wire 1 x! inst|i [13] $end
$var wire 1 y! inst|i [12] $end
$var wire 1 z! inst|i [11] $end
$var wire 1 {! inst|i [10] $end
$var wire 1 |! inst|i [9] $end
$var wire 1 }! inst|i [8] $end
$var wire 1 ~! inst|i [7] $end
$var wire 1 !" inst|i [6] $end
$var wire 1 "" inst|i [5] $end
$var wire 1 #" inst|i [4] $end
$var wire 1 $" inst|i [3] $end
$var wire 1 %" inst|i [2] $end
$var wire 1 &" inst|i [1] $end
$var wire 1 '" inst|i [0] $end
$var wire 1 (" inst|j [31] $end
$var wire 1 )" inst|j [30] $end
$var wire 1 *" inst|j [29] $end
$var wire 1 +" inst|j [28] $end
$var wire 1 ," inst|j [27] $end
$var wire 1 -" inst|j [26] $end
$var wire 1 ." inst|j [25] $end
$var wire 1 /" inst|j [24] $end
$var wire 1 0" inst|j [23] $end
$var wire 1 1" inst|j [22] $end
$var wire 1 2" inst|j [21] $end
$var wire 1 3" inst|j [20] $end
$var wire 1 4" inst|j [19] $end
$var wire 1 5" inst|j [18] $end
$var wire 1 6" inst|j [17] $end
$var wire 1 7" inst|j [16] $end
$var wire 1 8" inst|j [15] $end
$var wire 1 9" inst|j [14] $end
$var wire 1 :" inst|j [13] $end
$var wire 1 ;" inst|j [12] $end
$var wire 1 <" inst|j [11] $end
$var wire 1 =" inst|j [10] $end
$var wire 1 >" inst|j [9] $end
$var wire 1 ?" inst|j [8] $end
$var wire 1 @" inst|j [7] $end
$var wire 1 A" inst|j [6] $end
$var wire 1 B" inst|j [5] $end
$var wire 1 C" inst|j [4] $end
$var wire 1 D" inst|j [3] $end
$var wire 1 E" inst|j [2] $end
$var wire 1 F" inst|j [1] $end
$var wire 1 G" inst|j [0] $end
$upscope $end
$upscope $end
$enddefinitions $end
#0
$dumpvars
0!
0"
0#
1$
x%
1&
1'
1(
0)
0*
1+
0,
0-
0.
1/
00
01
02
13
04
05
06
17
08
09
0:
1;
0<
0=
0>
1?
0@
0A
0B
1C
0D
0E
0F
1G
0H
0I
0J
1K
0L
0M
0N
1O
0P
0Q
0R
1S
0T
0U
0V
1W
0X
0Y
0Z
1[
0\
0]
0^
1_
0`
0a
0b
1c
0d
0e
0f
1g
0h
0i
0j
1k
0l
1m
1n
1o
0p
1q
0r
0s
0t
0u
1v
1w
0x
0y
0z
1{
0|
0}
0~
0!!
1"!
0#!
0$!
0%!
1&!
0'!
0(!
0)!
1*!
1+!
0,!
0-!
0.!
1/!
00!
01!
02!
13!
14!
05!
06!
07!
18!
09!
0:!
0;!
1<!
0=!
1>!
0?!
0@!
0A!
1B!
0C!
0D!
0E!
1F!
1G!
0H!
0I!
0J!
1K!
1L!
0M!
0N!
0O!
1P!
1Q!
0R!
0S!
0T!
1U!
0V!
0W!
0X!
1Y!
1Z!
0[!
0\!
0]!
1^!
0_!
0`!
0a!
1b!
0c!
0d!
0e!
0'"
0&"
0%"
0$"
0#"
0""
0!"
0~!
0}!
0|!
0{!
0z!
0y!
0x!
0w!
0v!
0u!
0t!
0s!
0r!
0q!
0p!
0o!
0n!
0m!
0l!
0k!
0j!
0i!
0h!
0g!
0f!
0G"
0F"
0E"
0D"
0C"
0B"
0A"
0@"
0?"
0>"
0="
0<"
0;"
0:"
09"
08"
07"
06"
05"
04"
03"
02"
01"
00"
0/"
0."
0-"
0,"
0+"
0*"
0)"
0("
$end
#5000
1!
1*
1'"
1,
0+
1-
1l
1.
1p
1r
1s
1t
1u
0.
#10000
0!
0*
#15000
1!
1*
1G"
0'"
1y
0w
0,
1+
0-
0l
1z
0v
0p
0r
0s
0t
0u
#20000
0!
0*
#25000
1!
1*
1'"
1,
0+
1-
1l
1.
1p
1r
1s
1t
1u
0.
#30000
0!
0*
#35000
1!
1*
1F"
0G"
0'"
0{
0y
1w
0,
0z
1+
1|
1{
0-
0l
1z
1v
0|
0p
1x
0r
0x
0s
0t
0u
#40000
0!
0*
#45000
1!
1*
1'"
1,
0+
1-
1l
1.
1p
1r
1s
1t
1u
0.
#50000
0!
0*
#55000
1!
1*
1G"
0'"
1y
0w
0,
1+
0{
0-
0l
0z
0v
1|
0p
0r
1x
0s
0t
0u
#60000
0!
0*
#65000
1!
1*
1'"
1,
0+
1-
1l
1.
1p
1r
1s
1t
1u
0.
#70000
0!
0*
#75000
1!
1*
0F"
1E"
0G"
0'"
1{
1}
0|
0y
1w
0,
1z
1+
0}
1|
0-
0l
1~
0x
0z
1v
0p
0~
1x
0r
1!!
0s
1=!
0t
1c!
0u
1d!
0x
0v
0d!
#80000
0!
0*
#85000
1!
1*
1'"
1,
0+
1-
1l
1.
1p
1r
1s
1t
1u
1d!
0.
#90000
0!
0*
#95000
1!
1*
0E"
0'"
1e!
1)
0|
0,
1"
1+
0d!
0!!
0-
0l
0=!
0p
0c!
0r
0s
1d!
1v
0t
0u
#100000
0!
0*
#105000
1!
1*
1'"
1,
0+
1-
1l
1.
1p
1r
1s
1t
1u
0.
#110000
0!
0*
#115000
1!
1*
1G"
0'"
1y
0w
0,
1+
0-
0l
1z
0v
0p
0r
0s
0t
0u
#120000
0!
0*
#125000
1!
1*
1'"
1,
0+
1-
1l
1.
1p
1r
1s
1t
1u
0.
#130000
0!
0*
#135000
1!
1*
1F"
0G"
0'"
0{
0y
1w
0,
0z
1+
1|
1{
0-
0l
1z
1v
0|
0p
1x
0r
0x
0s
0t
0u
#140000
0!
0*
#145000
1!
1*
1'"
1,
0+
1-
1l
1.
1p
1r
1s
1t
1u
0.
#150000
0!
0*
#155000
1!
1*
1G"
0'"
1y
0w
0,
1+
0{
0-
0l
0z
0v
1|
0p
0r
1x
0s
0t
0u
#160000
0!
0*
#165000
1!
1*
1'"
1,
0+
1-
1l
1.
1p
1r
1s
1t
1u
0.
#170000
0!
0*
#175000
1!
1*
0F"
1E"
0G"
0'"
1{
1}
0|
0y
1w
0,
1z
1+
0}
1|
0-
0l
1~
0x
0z
1v
0p
0~
1x
0r
1!!
0s
1=!
0t
1c!
0u
0d!
0x
0v
1d!
#180000
0!
0*
#185000
1!
1*
1'"
1,
0+
1-
1l
1.
1p
1r
1s
1t
1u
0d!
0.
#190000
0!
0*
#195000
1!
1*
0E"
0'"
0e!
0)
0|
0,
0"
1+
1d!
0!!
0-
0l
0=!
0p
0c!
0r
0s
0d!
1v
0t
0u
#200000
0!
0*
#205000
1!
1*
1'"
1,
0+
1-
1l
1.
1p
1r
1s
1t
1u
0.
#210000
0!
0*
#215000
1!
1*
1G"
0'"
1y
0w
0,
1+
0-
0l
1z
0v
0p
0r
0s
0t
0u
#220000
0!
0*
#225000
1!
1*
1'"
1,
0+
1-
1l
1.
1p
1r
1s
1t
1u
0.
#230000
0!
0*
#235000
1!
1*
1F"
0G"
0'"
0{
0y
1w
0,
0z
1+
1|
1{
0-
0l
1z
1v
0|
0p
1x
0r
0x
0s
0t
0u
#240000
0!
0*
#245000
1!
1*
1'"
1,
0+
1-
1l
1.
1p
1r
1s
1t
1u
0.
#250000
0!
0*
#255000
1!
1*
1G"
0'"
1y
0w
0,
1+
0{
0-
0l
0z
0v
1|
0p
0r
1x
0s
0t
0u
#260000
0!
0*
#265000
1!
1*
1'"
1,
0+
1-
1l
1.
1p
1r
1s
1t
1u
0.
#270000
0!
0*
#275000
1!
1*
0F"
1E"
0G"
0'"
1{
1}
0|
0y
1w
0,
1z
1+
0}
1|
0-
0l
1~
0x
0z
1v
0p
0~
1x
0r
1!!
0s
1=!
0t
1c!
0u
1d!
0x
0v
0d!
#280000
0!
0*
#285000
1!
1*
1'"
1,
0+
1-
1l
1.
1p
1r
1s
1t
1u
1d!
0.
#290000
0!
0*
#295000
1!
1*
0E"
0'"
1e!
1)
0|
0,
1"
1+
0d!
0!!
0-
0l
0=!
0p
0c!
0r
0s
1d!
1v
0t
0u
#300000
0!
0*
#305000
1!
1*
1'"
1,
0+
1-
1l
1.
1p
1r
1s
1t
1u
0.
#310000
0!
0*
#315000
1!
1*
1G"
0'"
1y
0w
0,
1+
0-
0l
1z
0v
0p
0r
0s
0t
0u
#320000
0!
0*
#325000
1!
1*
1'"
1,
0+
1-
1l
1.
1p
1r
1s
1t
1u
0.
#330000
0!
0*
#335000
1!
1*
1F"
0G"
0'"
0{
0y
1w
0,
0z
1+
1|
1{
0-
0l
1z
1v
0|
0p
1x
0r
0x
0s
0t
0u
#340000
0!
0*
#345000
1!
1*
1'"
1,
0+
1-
1l
1.
1p
1r
1s
1t
1u
0.
#350000
0!
0*
#355000
1!
1*
1G"
0'"
1y
0w
0,
1+
0{
0-
0l
0z
0v
1|
0p
0r
1x
0s
0t
0u
#360000
0!
0*
#365000
1!
1*
1'"
1,
0+
1-
1l
1.
1p
1r
1s
1t
1u
0.
#370000
0!
0*
#375000
1!
1*
0F"
1E"
0G"
0'"
1{
1}
0|
0y
1w
0,
1z
1+
0}
1|
0-
0l
1~
0x
0z
1v
0p
0~
1x
0r
1!!
0s
1=!
0t
1c!
0u
0d!
0x
0v
1d!
#380000
0!
0*
#385000
1!
1*
1'"
1,
0+
1-
1l
1.
1p
1r
1s
1t
1u
0d!
0.
#390000
0!
0*
#395000
1!
1*
0E"
0'"
0e!
0)
0|
0,
0"
1+
1d!
0!!
0-
0l
0=!
0p
0c!
0r
0s
0d!
1v
0t
0u
#400000
0!
0*
#405000
1!
1*
1'"
1,
0+
1-
1l
1.
1p
1r
1s
1t
1u
0.
#410000
0!
0*
#415000
1!
1*
1G"
0'"
1y
0w
0,
1+
0-
0l
1z
0v
0p
0r
0s
0t
0u
#420000
0!
0*
#425000
1!
1*
1'"
1,
0+
1-
1l
1.
1p
1r
1s
1t
1u
0.
#430000
0!
0*
#435000
1!
1*
1F"
0G"
0'"
0{
0y
1w
0,
0z
1+
1|
1{
0-
0l
1z
1v
0|
0p
1x
0r
0x
0s
0t
0u
#440000
0!
0*
#445000
1!
1*
1'"
1,
0+
1-
1l
1.
1p
1r
1s
1t
1u
0.
#450000
0!
0*
#455000
1!
1*
1G"
0'"
1y
0w
0,
1+
0{
0-
0l
0z
0v
1|
0p
0r
1x
0s
0t
0u
#460000
0!
0*
#465000
1!
1*
1'"
1,
0+
1-
1l
1.
1p
1r
1s
1t
1u
0.
#470000
0!
0*
#475000
1!
1*
0F"
1E"
0G"
0'"
1{
1}
0|
0y
1w
0,
1z
1+
0}
1|
0-
0l
1~
0x
0z
1v
0p
0~
1x
0r
1!!
0s
1=!
0t
1c!
0u
1d!
0x
0v
0d!
#480000
0!
0*
#485000
1!
1*
1'"
1,
0+
1-
1l
1.
1p
1r
1s
1t
1u
1d!
0.
#490000
0!
0*
#495000
1!
1*
0E"
0'"
1e!
1)
0|
0,
1"
1+
0d!
0!!
0-
0l
0=!
0p
0c!
0r
0s
1d!
1v
0t
0u
#500000
0!
0*
#505000
1!
1*
1'"
1,
0+
1-
1l
1.
1p
1r
1s
1t
1u
0.
#510000
0!
0*
#515000
1!
1*
1G"
0'"
1y
0w
0,
1+
0-
0l
1z
0v
0p
0r
0s
0t
0u
#520000
0!
0*
#525000
1!
1*
1'"
1,
0+
1-
1l
1.
1p
1r
1s
1t
1u
0.
#530000
0!
0*
#535000
1!
1*
1F"
0G"
0'"
0{
0y
1w
0,
0z
1+
1|
1{
0-
0l
1z
1v
0|
0p
1x
0r
0x
0s
0t
0u
#540000
0!
0*
#545000
1!
1*
1'"
1,
0+
1-
1l
1.
1p
1r
1s
1t
1u
0.
#550000
0!
0*
#555000
1!
1*
1G"
0'"
1y
0w
0,
1+
0{
0-
0l
0z
0v
1|
0p
0r
1x
0s
0t
0u
#560000
0!
0*
#565000
1!
1*
1'"
1,
0+
1-
1l
1.
1p
1r
1s
1t
1u
0.
#570000
0!
0*
#575000
1!
1*
0F"
1E"
0G"
0'"
1{
1}
0|
0y
1w
0,
1z
1+
0}
1|
0-
0l
1~
0x
0z
1v
0p
0~
1x
0r
1!!
0s
1=!
0t
1c!
0u
0d!
0x
0v
1d!
#580000
0!
0*
#585000
1!
1*
1'"
1,
0+
1-
1l
1.
1p
1r
1s
1t
1u
0d!
0.
#590000
0!
0*
#595000
1!
1*
0E"
0'"
0e!
0)
0|
0,
0"
1+
1d!
0!!
0-
0l
0=!
0p
0c!
0r
0s
0d!
1v
0t
0u
#600000
0!
0*
#605000
1!
1*
1'"
1,
0+
1-
1l
1.
1p
1r
1s
1t
1u
0.
#610000
0!
0*
#615000
1!
1*
1G"
0'"
1y
0w
0,
1+
0-
0l
1z
0v
0p
0r
0s
0t
0u
#620000
0!
0*
#625000
1!
1*
1'"
1,
0+
1-
1l
1.
1p
1r
1s
1t
1u
0.
#630000
0!
0*
#635000
1!
1*
1F"
0G"
0'"
0{
0y
1w
0,
0z
1+
1|
1{
0-
0l
1z
1v
0|
0p
1x
0r
0x
0s
0t
0u
#640000
0!
0*
#645000
1!
1*
1'"
1,
0+
1-
1l
1.
1p
1r
1s
1t
1u
0.
#650000
0!
0*
#655000
1!
1*
1G"
0'"
1y
0w
0,
1+
0{
0-
0l
0z
0v
1|
0p
0r
1x
0s
0t
0u
#660000
0!
0*
#665000
1!
1*
1'"
1,
0+
1-
1l
1.
1p
1r
1s
1t
1u
0.
#670000
0!
0*
#675000
1!
1*
0F"
1E"
0G"
0'"
1{
1}
0|
0y
1w
0,
1z
1+
0}
1|
0-
0l
1~
0x
0z
1v
0p
0~
1x
0r
1!!
0s
1=!
0t
1c!
0u
1d!
0x
0v
0d!
#680000
0!
0*
#685000
1!
1*
1'"
1,
0+
1-
1l
1.
1p
1r
1s
1t
1u
1d!
0.
#690000
0!
0*
#695000
1!
1*
0E"
0'"
1e!
1)
0|
0,
1"
1+
0d!
0!!
0-
0l
0=!
0p
0c!
0r
0s
1d!
1v
0t
0u
#700000
0!
0*
#705000
1!
1*
1'"
1,
0+
1-
1l
1.
1p
1r
1s
1t
1u
0.
#710000
0!
0*
#715000
1!
1*
1G"
0'"
1y
0w
0,
1+
0-
0l
1z
0v
0p
0r
0s
0t
0u
#720000
0!
0*
#725000
1!
1*
1'"
1,
0+
1-
1l
1.
1p
1r
1s
1t
1u
0.
#730000
0!
0*
#735000
1!
1*
1F"
0G"
0'"
0{
0y
1w
0,
0z
1+
1|
1{
0-
0l
1z
1v
0|
0p
1x
0r
0x
0s
0t
0u
#740000
0!
0*
#745000
1!
1*
1'"
1,
0+
1-
1l
1.
1p
1r
1s
1t
1u
0.
#750000
0!
0*
#755000
1!
1*
1G"
0'"
1y
0w
0,
1+
0{
0-
0l
0z
0v
1|
0p
0r
1x
0s
0t
0u
#760000
0!
0*
#765000
1!
1*
1'"
1,
0+
1-
1l
1.
1p
1r
1s
1t
1u
0.
#770000
0!
0*
#775000
1!
1*
0F"
1E"
0G"
0'"
1{
1}
0|
0y
1w
0,
1z
1+
0}
1|
0-
0l
1~
0x
0z
1v
0p
0~
1x
0r
1!!
0s
1=!
0t
1c!
0u
0d!
0x
0v
1d!
#780000
0!
0*
#785000
1!
1*
1'"
1,
0+
1-
1l
1.
1p
1r
1s
1t
1u
0d!
0.
#790000
0!
0*
#795000
1!
1*
0E"
0'"
0e!
0)
0|
0,
0"
1+
1d!
0!!
0-
0l
0=!
0p
0c!
0r
0s
0d!
1v
0t
0u
#800000
0!
0*
#805000
1!
1*
1'"
1,
0+
1-
1l
1.
1p
1r
1s
1t
1u
0.
#810000
0!
0*
#815000
1!
1*
1G"
0'"
1y
0w
0,
1+
0-
0l
1z
0v
0p
0r
0s
0t
0u
#820000
0!
0*
#825000
1!
1*
1'"
1,
0+
1-
1l
1.
1p
1r
1s
1t
1u
0.
#830000
0!
0*
#835000
1!
1*
1F"
0G"
0'"
0{
0y
1w
0,
0z
1+
1|
1{
0-
0l
1z
1v
0|
0p
1x
0r
0x
0s
0t
0u
#840000
0!
0*
#845000
1!
1*
1'"
1,
0+
1-
1l
1.
1p
1r
1s
1t
1u
0.
#850000
0!
0*
#855000
1!
1*
1G"
0'"
1y
0w
0,
1+
0{
0-
0l
0z
0v
1|
0p
0r
1x
0s
0t
0u
#860000
0!
0*
#865000
1!
1*
1'"
1,
0+
1-
1l
1.
1p
1r
1s
1t
1u
0.
#870000
0!
0*
#875000
1!
1*
0F"
1E"
0G"
0'"
1{
1}
0|
0y
1w
0,
1z
1+
0}
1|
0-
0l
1~
0x
0z
1v
0p
0~
1x
0r
1!!
0s
1=!
0t
1c!
0u
1d!
0x
0v
0d!
#880000
0!
0*
#885000
1!
1*
1'"
1,
0+
1-
1l
1.
1p
1r
1s
1t
1u
1d!
0.
#890000
0!
0*
#895000
1!
1*
0E"
0'"
1e!
1)
0|
0,
1"
1+
0d!
0!!
0-
0l
0=!
0p
0c!
0r
0s
1d!
1v
0t
0u
#900000
0!
0*
#905000
1!
1*
1'"
1,
0+
1-
1l
1.
1p
1r
1s
1t
1u
0.
#910000
0!
0*
#915000
1!
1*
1G"
0'"
1y
0w
0,
1+
0-
0l
1z
0v
0p
0r
0s
0t
0u
#920000
0!
0*
#925000
1!
1*
1'"
1,
0+
1-
1l
1.
1p
1r
1s
1t
1u
0.
#930000
0!
0*
#935000
1!
1*
1F"
0G"
0'"
0{
0y
1w
0,
0z
1+
1|
1{
0-
0l
1z
1v
0|
0p
1x
0r
0x
0s
0t
0u
#940000
0!
0*
#945000
1!
1*
1'"
1,
0+
1-
1l
1.
1p
1r
1s
1t
1u
0.
#950000
0!
0*
#955000
1!
1*
1G"
0'"
1y
0w
0,
1+
0{
0-
0l
0z
0v
1|
0p
0r
1x
0s
0t
0u
#960000
0!
0*
#965000
1!
1*
1'"
1,
0+
1-
1l
1.
1p
1r
1s
1t
1u
0.
#970000
0!
0*
#975000
1!
1*
0F"
1E"
0G"
0'"
1{
1}
0|
0y
1w
0,
1z
1+
0}
1|
0-
0l
1~
0x
0z
1v
0p
0~
1x
0r
1!!
0s
1=!
0t
1c!
0u
0d!
0x
0v
1d!
#980000
0!
0*
#985000
1!
1*
1'"
1,
0+
1-
1l
1.
1p
1r
1s
1t
1u
0d!
0.
#990000
0!
0*
#995000
1!
1*
0E"
0'"
0e!
0)
0|
0,
0"
1+
1d!
0!!
0-
0l
0=!
0p
0c!
0r
0s
0d!
1v
0t
0u
