Quartus/simulation/qsim/5_1_2.msim.vcd
$comment
	File created using the following command:
		vcd file 5_1_2.msim.vcd -direction
$end
$date
	Tue Aug 14 11:39:54 2018
$end
$version
	ModelSim Version 10.5b
$end
$timescale
	1ps
$end

$scope module Block21_vlg_vec_tst $end
$var reg 1 ! clear $end
$var reg 1 " clock $end
$var reg 1 # enable $end
$var wire 1 $ pin_name1 $end
$var wire 1 % pin_name2 $end
$var wire 1 & pin_name3 $end
$var wire 1 ' pin_name4 $end
$var wire 1 ( pin_name5 $end
$var wire 1 ) pin_name6 $end
$var wire 1 * pin_name7 $end
$var wire 1 + pin_name8 $end
$var wire 1 , pin_name9 $end
$var wire 1 - pin_name10 $end
$var wire 1 . pin_name11 $end
$var wire 1 / pin_name12 $end
$var wire 1 0 pin_name13 $end
$var wire 1 1 pin_name14 $end
$var wire 1 2 pin_name15 $end
$var wire 1 3 pin_name16 $end
$var wire 1 4 pin_name17 $end
$var wire 1 5 pin_name18 $end
$var wire 1 6 pin_name19 $end
$var wire 1 7 pin_name20 $end
$var wire 1 8 pin_name21 $end
$var wire 1 9 pin_nameN1 $end

$scope module i1 $end
$var wire 1 : gnd $end
$var wire 1 ; vcc $end
$var wire 1 < unknown $end
$var tri1 1 = devclrn $end
$var tri1 1 > devpor $end
$var tri1 1 ? devoe $end
$var wire 1 @ pin_name2~output_o $end
$var wire 1 A pin_name3~output_o $end
$var wire 1 B pin_name4~output_o $end
$var wire 1 C pin_name5~output_o $end
$var wire 1 D pin_name6~output_o $end
$var wire 1 E pin_name7~output_o $end
$var wire 1 F pin_name8~output_o $end
$var wire 1 G pin_name1~output_o $end
$var wire 1 H pin_name9~output_o $end
$var wire 1 I pin_name10~output_o $end
$var wire 1 J pin_name11~output_o $end
$var wire 1 K pin_name12~output_o $end
$var wire 1 L pin_name13~output_o $end
$var wire 1 M pin_name14~output_o $end
$var wire 1 N pin_name15~output_o $end
$var wire 1 O pin_name16~output_o $end
$var wire 1 P pin_name17~output_o $end
$var wire 1 Q pin_name18~output_o $end
$var wire 1 R pin_name19~output_o $end
$var wire 1 S pin_name20~output_o $end
$var wire 1 T pin_name21~output_o $end
$var wire 1 U pin_nameN1~output_o $end
$var wire 1 V clock~input_o $end
$var wire 1 W enable~input_o $end
$var wire 1 X inst1|Q~0_combout $end
$var wire 1 Y clear~input_o $end
$var wire 1 Z inst1|Q~q $end
$var wire 1 [ inst2|Q~0_combout $end
$var wire 1 \ inst2|Q~q $end
$var wire 1 ] inst3|Q~0_combout $end
$var wire 1 ^ inst3|Q~q $end
$var wire 1 _ inst11|out~combout $end
$var wire 1 ` inst4|Q~0_combout $end
$var wire 1 a inst4|Q~q $end
$var wire 1 b inst5|Q~0_combout $end
$var wire 1 c inst5|Q~q $end
$var wire 1 d inst6|Q~0_combout $end
$var wire 1 e inst6|Q~q $end
$var wire 1 f inst14|out~combout $end
$var wire 1 g inst7|Q~0_combout $end
$var wire 1 h inst7|Q~q $end
$var wire 1 i inst8|Q~0_combout $end
$var wire 1 j inst8|Q~1_combout $end
$var wire 1 k inst8|Q~q $end
$var wire 1 l inst9|a~0_combout $end
$var wire 1 m inst9|b~0_combout $end
$var wire 1 n inst9|c~combout $end
$var wire 1 o inst9|d~0_combout $end
$var wire 1 p inst9|e~0_combout $end
$var wire 1 q inst9|f~0_combout $end
$var wire 1 r inst9|g~combout $end
$var wire 1 s inst16|a~0_combout $end
$var wire 1 t inst16|b~0_combout $end
$var wire 1 u inst16|c~combout $end
$var wire 1 v inst16|d~0_combout $end
$var wire 1 w inst16|e~0_combout $end
$var wire 1 x inst16|f~0_combout $end
$var wire 1 y inst16|g~0_combout $end
$upscope $end
$upscope $end
$enddefinitions $end
#0
$dumpvars
0!
0"
1#
0$
0%
0&
0'
0(
0)
0*
0+
0,
0-
0.
0/
00
11
02
03
04
05
06
07
18
09
0:
1;
x<
1=
1>
1?
0@
0A
0B
0C
0D
0E
0F
0G
0H
0I
0J
0K
0L
1M
0N
0O
0P
0Q
0R
0S
1T
0U
0V
1W
1X
0Y
0Z
0[
0\
0]
0^
0_
0`
0a
0b
0c
0d
0e
0f
0g
0h
1i
0j
0k
0l
0m
0n
0o
0p
0q
1r
0s
0t
0u
0v
0w
0x
1y
$end
#2500
1"
1V
1Z
1U
19
0r
1[
0X
0M
01
#5000
0"
0V
#7500
1"
1V
1\
0Z
0U
1@
1%
09
1p
1o
1X
1J
1K
1/
1.
#10000
0"
0V
#12500
1"
1V
1Z
1U
19
1r
0p
0o
1n
1m
1]
0[
0X
1H
1I
0J
0K
1M
11
0/
0.
1-
1,
#15000
0"
0V
#17500
1"
1V
1^
0\
0Z
0U
0@
1A
1&
0%
09
0r
1q
0m
1X
0H
1L
0M
01
10
0,
#20000
0"
0V
#22500
1"
1V
1Z
1U
19
0q
1[
0X
0L
00
#25000
0"
0V
#27500
1"
1V
1\
0Z
0U
1@
1%
09
0n
1m
1X
1H
0I
0-
1,
#30000
0"
0V
#32500
1"
1V
1Z
1U
1_
19
1l
0]
0[
0X
1G
1$
1`
#35000
0"
0V
#37500
1"
1V
1a
0^
0\
0Z
0U
0@
0A
1B
0_
1'
0&
0%
09
1r
1q
1p
1o
0m
1b
0`
1X
0H
1J
1K
1L
1M
11
10
1/
1.
0,
0b
1`
#40000
0"
0V
#42500
1"
1V
1Z
1U
19
0r
0q
0o
0l
1[
0X
0G
0J
0L
0M
01
00
0.
0$
#45000
0"
0V
#47500
1"
1V
1\
0Z
0U
1@
1%
09
1m
1X
1H
1,
#50000
0"
0V
#52500
1"
1V
1Z
1U
19
1q
0p
0m
1l
1]
0[
0X
1G
0H
0K
1L
10
0/
0,
1$
#55000
0"
0V
#57500
1"
1V
1^
0\
0Z
0U
0@
1A
1&
0%
09
1p
0l
1X
0G
1K
1/
0$
#60000
0"
0V
#62500
1"
1V
1Z
1U
19
0q
0p
1m
1l
1[
0X
1G
1H
0K
0L
00
0/
1,
1$
#65000
0"
0V
#67500
1"
1V
1\
0Z
0U
1@
1%
09
1r
1q
1p
1o
0m
0l
1X
0G
0H
1J
1K
1L
1M
11
10
1/
1.
0,
0$
#70000
0"
0V
#72500
1"
1V
1Z
1U
1_
19
0r
0q
0p
0o
1n
1m
1l
0]
0[
0X
1G
1H
1I
0J
0K
0L
0M
01
00
0/
0.
1-
1,
1$
1b
0`
#75000
0"
0V
#77500
1"
1V
1c
0a
0^
0\
0Z
0U
0@
0A
0B
1C
0_
1(
0'
0&
0%
09
0y
1r
0n
0m
0l
1`
1X
0G
0H
0I
1M
0T
08
11
0-
0,
0$
0`
#80000
0"
0V
#82500
1"
1V
1Z
1U
19
0r
1[
0X
0M
01
#85000
0"
0V
#87500
1"
1V
1\
0Z
0U
1@
1%
09
1p
1o
1X
1J
1K
1/
1.
#90000
0"
0V
#92500
1"
1V
1Z
1U
19
1r
0p
0o
1n
1m
1]
0[
0X
1H
1I
0J
0K
1M
11
0/
0.
1-
1,
#95000
0"
0V
#97500
1"
1V
1^
0\
0Z
0U
0@
1A
1&
0%
09
0r
1q
0m
1X
0H
1L
0M
01
10
0,
#100000
0"
0V
#102500
1"
1V
1Z
1U
19
0q
1[
0X
0L
00
#105000
0"
0V
#107500
1"
1V
1\
0Z
0U
1@
1%
09
0n
1m
1X
1H
0I
0-
1,
#110000
0"
0V
#112500
1"
1V
1Z
1U
1_
19
1l
0]
0[
0X
1G
1$
1`
#115000
0"
0V
#117500
1"
1V
1a
0^
0\
0Z
0U
0@
0A
1B
0_
1'
0&
0%
09
1r
1q
1p
1o
0m
1d
0b
0`
1X
0H
1J
1K
1L
1M
11
10
1/
1.
0,
0d
1b
1`
#120000
0"
0V
#122500
1"
1V
1Z
1U
19
0r
0q
0o
0l
1[
0X
0G
0J
0L
0M
01
00
0.
0$
#125000
0"
0V
#127500
1"
1V
1\
0Z
0U
1@
1%
09
1m
1X
1H
1,
#130000
0"
0V
#132500
1"
1V
1Z
1U
19
1q
0p
0m
1l
1]
0[
0X
1G
0H
0K
1L
10
0/
0,
1$
#135000
0"
0V
#137500
1"
1V
1^
0\
0Z
0U
0@
1A
1&
0%
09
1p
0l
1X
0G
1K
1/
0$
#140000
0"
0V
#142500
1"
1V
1Z
1U
19
0q
0p
1m
1l
1[
0X
1G
1H
0K
0L
00
0/
1,
1$
#145000
0"
0V
#147500
1"
1V
1\
0Z
0U
1@
1%
09
1r
1q
1p
1o
0m
0l
1X
0G
0H
1J
1K
1L
1M
11
10
1/
1.
0,
0$
#150000
0"
0V
#152500
1"
1V
1Z
1U
1_
19
0r
0q
0p
0o
1n
1m
1l
0]
0[
0X
1G
1H
1I
0J
0K
0L
0M
01
00
0/
0.
1-
1,
1$
1d
0b
0`
#155000
0"
0V
#157500
1"
1V
1e
0c
0a
0^
0\
0Z
0U
0@
0A
0B
0C
1D
0_
1)
0(
0'
0&
0%
09
1w
1v
1r
0n
0m
0l
1`
1X
0G
0H
0I
1M
1Q
1R
16
15
11
0-
0,
0$
0`
#160000
0"
0V
#162500
1"
1V
1Z
1U
19
0r
1[
0X
0M
01
#165000
0"
0V
#167500
1"
1V
1\
0Z
0U
1@
1%
09
1p
1o
1X
1J
1K
1/
1.
#170000
0"
0V
#172500
1"
1V
1Z
1U
19
1r
0p
0o
1n
1m
1]
0[
0X
1H
1I
0J
0K
1M
11
0/
0.
1-
1,
#175000
0"
0V
#177500
1"
1V
1^
0\
0Z
0U
0@
1A
1&
0%
09
0r
1q
0m
1X
0H
1L
0M
01
10
0,
#180000
0"
0V
#182500
1"
1V
1Z
1U
19
0q
1[
0X
0L
00
#185000
0"
0V
#187500
1"
1V
1\
0Z
0U
1@
1%
09
0n
1m
1X
1H
0I
0-
1,
#190000
0"
0V
#192500
1"
1V
1Z
1U
1_
19
1l
0]
0[
0X
1G
1$
1`
#195000
0"
0V
#197500
1"
1V
1a
0^
0\
0Z
0U
0@
0A
1B
0_
1'
0&
0%
09
1r
1q
1p
1o
0m
1b
0`
1X
0H
1J
1K
1L
1M
11
10
1/
1.
0,
0b
1`
#200000
0"
0V
#202500
1"
1V
1Z
1U
19
0r
0q
0o
0l
1[
0X
0G
0J
0L
0M
01
00
0.
0$
#205000
0"
0V
#207500
1"
1V
1\
0Z
0U
1@
1%
09
1m
1X
1H
1,
#210000
0"
0V
#212500
1"
1V
1Z
1U
19
1q
0p
0m
1l
1]
0[
0X
1G
0H
0K
1L
10
0/
0,
1$
#215000
0"
0V
#217500
1"
1V
1^
0\
0Z
0U
0@
1A
1&
0%
09
1p
0l
1X
0G
1K
1/
0$
#220000
0"
0V
#222500
1"
1V
1Z
1U
19
0q
0p
1m
1l
1[
0X
1G
1H
0K
0L
00
0/
1,
1$
#225000
0"
0V
#227500
1"
1V
1\
0Z
0U
1@
1%
09
1r
1q
1p
1o
0m
0l
1X
0G
0H
1J
1K
1L
1M
11
10
1/
1.
0,
0$
#230000
0"
0V
#232500
1"
1V
1Z
1U
1_
19
0r
0q
0p
0o
1n
1m
1l
0]
0[
0X
1G
1H
1I
0J
0K
0L
0M
01
00
0/
0.
1-
1,
1$
1b
0`
#235000
0"
0V
#237500
1"
1V
1c
0a
0^
0\
0Z
0U
0@
0A
0B
1C
0_
1(
0'
0&
0%
09
1y
0w
0v
1u
1t
1r
0n
0m
0l
1`
1X
0G
0H
0I
1M
1O
1P
0Q
0R
1T
18
06
05
14
13
11
0-
0,
0$
0`
#240000
0"
0V
#242500
1"
1V
1Z
1U
19
0r
1[
0X
0M
01
#245000
0"
0V
#247500
1"
1V
1\
0Z
0U
1@
1%
09
1p
1o
1X
1J
1K
1/
1.
#250000
0"
0V
#252500
1"
1V
1Z
1U
19
1r
0p
0o
1n
1m
1]
0[
0X
1H
1I
0J
0K
1M
11
0/
0.
1-
1,
#255000
0"
0V
#257500
1"
1V
1^
0\
0Z
0U
0@
1A
1&
0%
09
0r
1q
0m
1X
0H
1L
0M
01
10
0,
#260000
0"
0V
#262500
1"
1V
1Z
1U
19
0q
1[
0X
0L
00
#265000
0"
0V
#267500
1"
1V
1\
0Z
0U
1@
1%
09
0n
1m
1X
1H
0I
0-
1,
#270000
0"
0V
#272500
1"
1V
1Z
1U
1_
19
1l
0]
0[
0X
1G
1$
1`
#275000
0"
0V
#277500
1"
1V
1a
0^
0\
0Z
0U
0@
0A
1B
1f
0_
1'
0&
0%
09
1r
1q
1p
1o
0m
0d
0b
0`
1X
0H
1J
1K
1L
1M
0f
11
10
1/
1.
0,
1g
1d
1b
1`
0g
#280000
0"
0V
#282500
1"
1V
1Z
1U
19
0r
0q
0o
0l
1[
0X
0G
0J
0L
0M
01
00
0.
0$
#285000
0"
0V
#287500
1"
1V
1\
0Z
0U
1@
1%
09
1m
1X
1H
1,
#290000
0"
0V
#292500
1"
1V
1Z
1U
19
1q
0p
0m
1l
1]
0[
0X
1G
0H
0K
1L
10
0/
0,
1$
#295000
0"
0V
#297500
1"
1V
1^
0\
0Z
0U
0@
1A
1&
0%
09
1p
0l
1X
0G
1K
1/
0$
#300000
0"
0V
#302500
1"
1V
1Z
1U
19
0q
0p
1m
1l
1[
0X
1G
1H
0K
0L
00
0/
1,
1$
#305000
0"
0V
#307500
1"
1V
1\
0Z
0U
1@
1%
09
1r
1q
1p
1o
0m
0l
1X
0G
0H
1J
1K
1L
1M
11
10
1/
1.
0,
0$
#310000
0"
0V
#312500
1"
1V
1Z
1U
1_
19
0r
0q
0p
0o
1n
1m
1l
0]
0[
0X
1G
1H
1I
0J
0K
0L
0M
1f
01
00
0/
0.
1-
1,
1$
0d
0b
0`
1g
#315000
0"
0V
#317500
1"
1V
1h
0e
0c
0a
0^
0\
0Z
0U
0@
0A
0B
0C
0D
1E
0f
0_
1*
0)
0(
0'
0&
0%
09
1x
1w
1v
0u
0t
1s
0g
1r
0n
0m
0l
1`
1X
0G
0H
0I
1M
1N
0O
0P
1Q
1R
1S
17
16
15
04
03
12
11
0-
0,
0$
1g
0`
#320000
0"
0V
#322500
1"
1V
1Z
1U
19
0r
1[
0X
0M
01
#325000
0"
0V
#327500
1"
1V
1\
0Z
0U
1@
1%
09
1p
1o
1X
1J
1K
1/
1.
#330000
0"
0V
#332500
1"
1V
1Z
1U
19
1r
0p
0o
1n
1m
1]
0[
0X
1H
1I
0J
0K
1M
11
0/
0.
1-
1,
#335000
0"
0V
#337500
1"
1V
1^
0\
0Z
0U
0@
1A
1&
0%
09
0r
1q
0m
1X
0H
1L
0M
01
10
0,
#340000
0"
0V
#342500
1"
1V
1Z
1U
19
0q
1[
0X
0L
00
#345000
0"
0V
#347500
1"
1V
1\
0Z
0U
1@
1%
09
0n
1m
1X
1H
0I
0-
1,
#350000
0"
0V
#352500
1"
1V
1Z
1U
1_
19
1l
0]
0[
0X
1G
1$
1`
#355000
0"
0V
#357500
1"
1V
1a
0^
0\
0Z
0U
0@
0A
1B
0_
1'
0&
0%
09
1r
1q
1p
1o
0m
1b
0`
1X
0H
1J
1K
1L
1M
11
10
1/
1.
0,
0b
1`
#360000
0"
0V
#362500
1"
1V
1Z
1U
19
0r
0q
0o
0l
1[
0X
0G
0J
0L
0M
01
00
0.
0$
#365000
0"
0V
#367500
1"
1V
1\
0Z
0U
1@
1%
09
1m
1X
1H
1,
#370000
0"
0V
#372500
1"
1V
1Z
1U
19
1q
0p
0m
1l
1]
0[
0X
1G
0H
0K
1L
10
0/
0,
1$
#375000
0"
0V
#377500
1"
1V
1^
0\
0Z
0U
0@
1A
1&
0%
09
1p
0l
1X
0G
1K
1/
0$
#380000
0"
0V
#382500
1"
1V
1Z
1U
19
0q
0p
1m
1l
1[
0X
1G
1H
0K
0L
00
0/
1,
1$
#385000
0"
0V
#387500
1"
1V
1\
0Z
0U
1@
1%
09
1r
1q
1p
1o
0m
0l
1X
0G
0H
1J
1K
1L
1M
11
10
1/
1.
0,
0$
#390000
0"
0V
#392500
1"
1V
1Z
1U
1_
19
0r
0q
0p
0o
1n
1m
1l
0]
0[
0X
1G
1H
1I
0J
0K
0L
0M
01
00
0/
0.
1-
1,
1$
1b
0`
#395000
0"
0V
#397500
1"
1V
1c
0a
0^
0\
0Z
0U
0@
0A
0B
1C
0_
1(
0'
0&
0%
09
0y
0x
0v
0s
1r
0n
0m
0l
1`
1X
0G
0H
0I
1M
0N
0Q
0S
0T
08
07
05
02
11
0-
0,
0$
0`
#400000
0"
0V
#402500
1"
1V
1Z
1U
19
0r
1[
0X
0M
01
#405000
0"
0V
#407500
1"
1V
1\
0Z
0U
1@
1%
09
1p
1o
1X
1J
1K
1/
1.
#410000
0"
0V
#412500
1"
1V
1Z
1U
19
1r
0p
0o
1n
1m
1]
0[
0X
1H
1I
0J
0K
1M
11
0/
0.
1-
1,
#415000
0"
0V
#417500
1"
1V
1^
0\
0Z
0U
0@
1A
1&
0%
09
0r
1q
0m
1X
0H
1L
0M
01
10
0,
#420000
0"
0V
#422500
1"
1V
1Z
1U
19
0q
1[
0X
0L
00
#425000
0"
0V
#427500
1"
1V
1\
0Z
0U
1@
1%
09
0n
1m
1X
1H
0I
0-
1,
#430000
0"
0V
#432500
1"
1V
1Z
1U
1_
19
1l
0]
0[
0X
1G
1$
1`
#435000
0"
0V
#437500
1"
1V
1a
0^
0\
0Z
0U
0@
0A
1B
0i
0_
1'
0&
0%
09
1r
1q
1p
1o
0m
1d
0b
0`
1X
0H
1J
1K
1L
1M
11
10
1/
1.
0,
0d
1b
1`
#440000
0"
0V
#442500
1"
1V
1Z
1U
19
0r
0q
0o
0l
1[
0X
0G
0J
0L
0M
01
00
0.
0$
#445000
0"
0V
#447500
1"
1V
1\
0Z
0U
1@
1%
09
1m
1X
1H
1,
#450000
0"
0V
#452500
1"
1V
1Z
1U
19
1q
0p
0m
1l
1]
0[
0X
1G
0H
0K
1L
10
0/
0,
1$
#455000
0"
0V
#457500
1"
1V
1^
0\
0Z
0U
0@
1A
1&
0%
09
1p
0l
1X
0G
1K
1/
0$
#460000
0"
0V
#462500
1"
1V
1Z
1U
19
0q
0p
1m
1l
1[
0X
1G
1H
0K
0L
00
0/
1,
1$
#465000
0"
0V
#467500
1"
1V
1\
0Z
0U
1@
1%
09
1r
1q
1p
1o
0m
0l
1X
0G
0H
1J
1K
1L
1M
11
10
1/
1.
0,
0$
#470000
0"
0V
#472500
1"
1V
1Z
1U
1_
19
0r
0q
0p
0o
1n
1m
1l
0]
0[
0X
1G
1H
1I
0J
0K
0L
0M
01
00
0/
0.
1-
1,
1$
1d
0b
0`
#475000
0"
0V
#477500
1"
1V
1e
0c
0a
0^
0\
0Z
0U
0@
0A
0B
0C
1D
1i
0_
1)
0(
0'
0&
0%
09
1t
1j
1r
0n
0m
0l
1`
1X
0G
0H
0I
1M
1O
13
11
0-
0,
0$
0j
0`
#480000
0"
0V
#482500
1"
1V
1Z
1U
19
0r
1[
0X
0M
01
#485000
0"
0V
#487500
1"
1V
1\
0Z
0U
1@
1%
09
1p
1o
1X
1J
1K
1/
1.
#490000
0"
0V
#492500
1"
1V
1Z
1U
19
1r
0p
0o
1n
1m
1]
0[
0X
1H
1I
0J
0K
1M
11
0/
0.
1-
1,
#495000
0"
0V
#497500
1"
1V
1^
0\
0Z
0U
0@
1A
1&
0%
09
0r
1q
0m
1X
0H
1L
0M
01
10
0,
#500000
0"
0V
#502500
1"
1V
1Z
1U
19
0q
1[
0X
0L
00
#505000
0"
0V
#507500
1"
1V
1\
0Z
0U
1@
1%
09
0n
1m
1X
1H
0I
0-
1,
#510000
0"
0V
#512500
1"
1V
1Z
1U
1_
19
1l
0]
0[
0X
1G
1$
1`
#515000
0"
0V
#517500
1"
1V
1a
0^
0\
0Z
0U
0@
0A
1B
0_
1'
0&
0%
09
1r
1q
1p
1o
0m
1b
0`
1X
0H
1J
1K
1L
1M
11
10
1/
1.
0,
0b
1`
#520000
0"
0V
#522500
1"
1V
1Z
1U
19
0r
0q
0o
0l
1[
0X
0G
0J
0L
0M
01
00
0.
0$
#525000
0"
0V
#527500
1"
1V
1\
0Z
0U
1@
1%
09
1m
1X
1H
1,
#530000
0"
0V
#532500
1"
1V
1Z
1U
19
1q
0p
0m
1l
1]
0[
0X
1G
0H
0K
1L
10
0/
0,
1$
#535000
0"
0V
#537500
1"
1V
1^
0\
0Z
0U
0@
1A
1&
0%
09
1p
0l
1X
0G
1K
1/
0$
#540000
0"
0V
#542500
1"
1V
1Z
1U
19
0q
0p
1m
1l
1[
0X
1G
1H
0K
0L
00
0/
1,
1$
#545000
0"
0V
#547500
1"
1V
1\
0Z
0U
1@
1%
09
1r
1q
1p
1o
0m
0l
1X
0G
0H
1J
1K
1L
1M
11
10
1/
1.
0,
0$
#550000
0"
0V
#552500
1"
1V
1Z
1U
1_
19
0r
0q
0p
0o
1n
1m
1l
0]
0[
0X
1G
1H
1I
0J
0K
0L
0M
01
00
0/
0.
1-
1,
1$
1b
0`
#555000
0"
0V
#557500
1"
1V
1c
0a
0^
0\
0Z
0U
0@
0A
0B
1C
0_
1(
0'
0&
0%
09
1x
0w
0t
1s
1r
0n
0m
0l
1`
1X
0G
0H
0I
1M
1N
0O
0R
1S
17
06
03
12
11
0-
0,
0$
0`
#560000
0"
0V
#562500
1"
1V
1Z
1U
19
0r
1[
0X
0M
01
#565000
0"
0V
#567500
1"
1V
1\
0Z
0U
1@
1%
09
1p
1o
1X
1J
1K
1/
1.
#570000
0"
0V
#572500
1"
1V
1Z
1U
19
1r
0p
0o
1n
1m
1]
0[
0X
1H
1I
0J
0K
1M
11
0/
0.
1-
1,
#575000
0"
0V
#577500
1"
1V
1^
0\
0Z
0U
0@
1A
1&
0%
09
0r
1q
0m
1X
0H
1L
0M
01
10
0,
#580000
0"
0V
#582500
1"
1V
1Z
1U
19
0q
1[
0X
0L
00
#585000
0"
0V
#587500
1"
1V
1\
0Z
0U
1@
1%
09
0n
1m
1X
1H
0I
0-
1,
#590000
0"
0V
#592500
1"
1V
1Z
1U
1_
19
1l
0]
0[
0X
1G
1$
1`
#595000
0"
0V
#597500
1"
1V
1a
0^
0\
0Z
0U
0@
0A
1B
0i
1f
0_
1'
0&
0%
09
1r
1q
1p
1o
0m
0d
0b
0`
1X
0H
1J
1K
1L
1M
0f
11
10
1/
1.
0,
0g
1d
1b
1`
1g
#600000
0"
0V
#602500
1"
1V
1Z
1U
19
0r
0q
0o
0l
1[
0X
0G
0J
0L
0M
01
00
0.
0$
#605000
0"
0V
#607500
1"
1V
1\
0Z
0U
1@
1%
09
1m
1X
1H
1,
#610000
0"
0V
#612500
1"
1V
1Z
1U
19
1q
0p
0m
1l
1]
0[
0X
1G
0H
0K
1L
10
0/
0,
1$
#615000
0"
0V
#617500
1"
1V
1^
0\
0Z
0U
0@
1A
1&
0%
09
1p
0l
1X
0G
1K
1/
0$
#620000
0"
0V
#622500
1"
1V
1Z
1U
19
0q
0p
1m
1l
1[
0X
1G
1H
0K
0L
00
0/
1,
1$
#625000
0"
0V
#627500
1"
1V
1\
0Z
0U
1@
1%
09
1r
1q
1p
1o
0m
0l
1X
0G
0H
1J
1K
1L
1M
11
10
1/
1.
0,
0$
#630000
0"
0V
#632500
1"
1V
1Z
1U
1_
19
0r
0q
0p
0o
1n
1m
1l
0]
0[
0X
1G
1H
1I
0J
0K
0L
0M
1f
01
00
0/
0.
1-
1,
1$
1j
0d
0b
0`
0g
#635000
0"
0V
#637500
1"
1V
1k
0h
0e
0c
0a
0^
0\
0Z
0U
0@
0A
0B
0C
0D
0E
1F
1i
0f
0_
1+
0*
0)
0(
0'
0&
0%
09
1u
0s
1g
1r
0n
0m
0l
1`
1X
0G
0H
0I
1M
0N
1P
14
02
11
0-
0,
0$
0g
0`
#640000
0"
0V
#642500
1"
1V
1Z
1U
19
0r
1[
0X
0M
01
#645000
0"
0V
#647500
1"
1V
1\
0Z
0U
1@
1%
09
1p
1o
1X
1J
1K
1/
1.
#650000
0"
0V
#652500
1"
1V
1Z
1U
19
1r
0p
0o
1n
1m
1]
0[
0X
1H
1I
0J
0K
1M
11
0/
0.
1-
1,
#655000
0"
0V
#657500
1"
1V
1^
0\
0Z
0U
0@
1A
1&
0%
09
0r
1q
0m
1X
0H
1L
0M
01
10
0,
#660000
0"
0V
#662500
1"
1V
1Z
1U
19
0q
1[
0X
0L
00
#665000
0"
0V
#667500
1"
1V
1\
0Z
0U
1@
1%
09
0n
1m
1X
1H
0I
0-
1,
#670000
0"
0V
#672500
1"
1V
1Z
1U
1_
19
1l
0]
0[
0X
1G
1$
1`
#675000
0"
0V
#677500
1"
1V
1a
0^
0\
0Z
0U
0@
0A
1B
0_
1'
0&
0%
09
1r
1q
1p
1o
0m
1b
0`
1X
0H
1J
1K
1L
1M
11
10
1/
1.
0,
0b
1`
#680000
0"
0V
#682500
1"
1V
1Z
1U
19
0r
0q
0o
0l
1[
0X
0G
0J
0L
0M
01
00
0.
0$
#685000
0"
0V
#687500
1"
1V
1\
0Z
0U
1@
1%
09
1m
1X
1H
1,
#690000
0"
0V
#692500
1"
1V
1Z
1U
19
1q
0p
0m
1l
1]
0[
0X
1G
0H
0K
1L
10
0/
0,
1$
#695000
0"
0V
#697500
1"
1V
1^
0\
0Z
0U
0@
1A
1&
0%
09
1p
0l
1X
0G
1K
1/
0$
#700000
0"
0V
#702500
1"
1V
1Z
1U
19
0q
0p
1m
1l
1[
0X
1G
1H
0K
0L
00
0/
1,
1$
#705000
0"
0V
#707500
1"
1V
1\
0Z
0U
1@
1%
09
1r
1q
1p
1o
0m
0l
1X
0G
0H
1J
1K
1L
1M
11
10
1/
1.
0,
0$
#710000
0"
0V
#712500
1"
1V
1Z
1U
1_
19
0r
0q
0p
0o
1n
1m
1l
0]
0[
0X
1G
1H
1I
0J
0K
0L
0M
01
00
0/
0.
1-
1,
1$
1b
0`
#715000
0"
0V
#717500
1"
1V
1c
0a
0^
0\
0Z
0U
0@
0A
0B
1C
0_
1(
0'
0&
0%
09
0x
1r
0n
0m
0l
1`
1X
0G
0H
0I
1M
0S
07
11
0-
0,
0$
0`
#720000
0"
0V
#722500
1"
1V
1Z
1U
19
0r
1[
0X
0M
01
#725000
0"
0V
#727500
1"
1V
1\
0Z
0U
1@
1%
09
1p
1o
1X
1J
1K
1/
1.
#730000
0"
0V
#732500
1"
1V
1Z
1U
19
1r
0p
0o
1n
1m
1]
0[
0X
1H
1I
0J
0K
1M
11
0/
0.
1-
1,
#735000
0"
0V
#737500
1"
1V
1^
0\
0Z
0U
0@
1A
1&
0%
09
0r
1q
0m
1X
0H
1L
0M
01
10
0,
#740000
0"
0V
#742500
1"
1V
1Z
1U
19
0q
1[
0X
0L
00
#745000
0"
0V
#747500
1"
1V
1\
0Z
0U
1@
1%
09
0n
1m
1X
1H
0I
0-
1,
#750000
0"
0V
#752500
1"
1V
1Z
1U
1_
19
1l
0]
0[
0X
1G
1$
1`
#755000
0"
0V
#757500
1"
1V
1a
0^
0\
0Z
0U
0@
0A
1B
0_
1'
0&
0%
09
1r
1q
1p
1o
0m
1d
0b
0`
1X
0H
1J
1K
1L
1M
11
10
1/
1.
0,
0d
1b
1`
#760000
0"
0V
#762500
1"
1V
1Z
1U
19
0r
0q
0o
0l
1[
0X
0G
0J
0L
0M
01
00
0.
0$
#765000
0"
0V
#767500
1"
1V
1\
0Z
0U
1@
1%
09
1m
1X
1H
1,
#770000
0"
0V
#772500
1"
1V
1Z
1U
19
1q
0p
0m
1l
1]
0[
0X
1G
0H
0K
1L
10
0/
0,
1$
#775000
0"
0V
#777500
1"
1V
1^
0\
0Z
0U
0@
1A
1&
0%
09
1p
0l
1X
0G
1K
1/
0$
#780000
0"
0V
#782500
1"
1V
1Z
1U
19
0q
0p
1m
1l
1[
0X
1G
1H
0K
0L
00
0/
1,
1$
#785000
0"
0V
#787500
1"
1V
1\
0Z
0U
1@
1%
09
1r
1q
1p
1o
0m
0l
1X
0G
0H
1J
1K
1L
1M
11
10
1/
1.
0,
0$
#790000
0"
0V
#792500
1"
1V
1Z
1U
1_
19
0r
0q
0p
0o
1n
1m
1l
0]
0[
0X
1G
1H
1I
0J
0K
0L
0M
01
00
0/
0.
1-
1,
1$
1d
0b
0`
#795000
0"
0V
#797500
1"
1V
1e
0c
0a
0^
0\
0Z
0U
0@
0A
0B
0C
1D
0_
1)
0(
0'
0&
0%
09
0u
1t
1r
0n
0m
0l
1`
1X
0G
0H
0I
1M
1O
0P
04
13
11
0-
0,
0$
0`
#800000
0"
0V
#802500
1"
1V
1Z
1U
19
0r
1[
0X
0M
01
#805000
0"
0V
#807500
1"
1V
1\
0Z
0U
1@
1%
09
1p
1o
1X
1J
1K
1/
1.
#810000
0"
0V
#812500
1"
1V
1Z
1U
19
1r
0p
0o
1n
1m
1]
0[
0X
1H
1I
0J
0K
1M
11
0/
0.
1-
1,
#815000
0"
0V
#817500
1"
1V
1^
0\
0Z
0U
0@
1A
1&
0%
09
0r
1q
0m
1X
0H
1L
0M
01
10
0,
#820000
0"
0V
#822500
1"
1V
1Z
1U
19
0q
1[
0X
0L
00
#825000
0"
0V
#827500
1"
1V
1\
0Z
0U
1@
1%
09
0n
1m
1X
1H
0I
0-
1,
#830000
0"
0V
#832500
1"
1V
1Z
1U
1_
19
1l
0]
0[
0X
1G
1$
1`
#835000
0"
0V
#837500
1"
1V
1a
0^
0\
0Z
0U
0@
0A
1B
0_
1'
0&
0%
09
1r
1q
1p
1o
0m
1b
0`
1X
0H
1J
1K
1L
1M
11
10
1/
1.
0,
0b
1`
#840000
0"
0V
#842500
1"
1V
1Z
1U
19
0r
0q
0o
0l
1[
0X
0G
0J
0L
0M
01
00
0.
0$
#845000
0"
0V
#847500
1"
1V
1\
0Z
0U
1@
1%
09
1m
1X
1H
1,
#850000
0"
0V
